Sistemas Digitais 2 (2022)/EP3-ULA/alu.vcd
$date
  Mon Oct 24 00:20:58 2022
$end
$version
  GHDL v0
$end
$timescale
  1 fs
$end
$var reg 4 ! a_in[3:0] $end
$var reg 4 " b_in[3:0] $end
$var reg 4 # s_in[3:0] $end
$var reg 4 $ f_out[3:0] $end
$var reg 1 % z_out $end
$var reg 1 & ov_out $end
$var reg 1 ' co_out $end
$var reg 1 ( keep_simulating $end
$scope module dut $end
$var reg 4 ) a[3:0] $end
$var reg 4 * b[3:0] $end
$var reg 4 + f[3:0] $end
$var reg 4 , s[3:0] $end
$var reg 1 - z $end
$var reg 1 . ov $end
$var reg 1 / co $end
$var reg 4 0 s_and[3:0] $end
$var reg 4 1 s_or[3:0] $end
$var reg 4 2 s_b_tratado[3:0] $end
$var reg 4 3 s_fadd[3:0] $end
$var reg 4 4 s_nor[3:0] $end
$var reg 4 5 comparador[3:0] $end
$var reg 4 6 s_comparador[3:0] $end
$var reg 4 7 resultado[3:0] $end
$var reg 4 8 zero[3:0] $end
$var reg 1 9 s_cin $end
$var reg 1 : s_cout $end
$scope module soma $end
$var reg 4 ; a[3:0] $end
$var reg 4 < b[3:0] $end
$var reg 1 = cin $end
$var reg 4 > s[3:0] $end
$var reg 1 ? cout $end
$var reg 5 @ temp[4:0] $end
$scope module (0) $end
$scope module fa_i $end
$var reg 1 A a $end
$var reg 1 B b $end
$var reg 1 C cin $end
$var reg 1 D s $end
$var reg 1 E cout $end
$var reg 1 F axorb $end
$upscope $end
$upscope $end
$scope module (1) $end
$scope module fa_i $end
$var reg 1 G a $end
$var reg 1 H b $end
$var reg 1 I cin $end
$var reg 1 J s $end
$var reg 1 K cout $end
$var reg 1 L axorb $end
$upscope $end
$upscope $end
$scope module (2) $end
$scope module fa_i $end
$var reg 1 M a $end
$var reg 1 N b $end
$var reg 1 O cin $end
$var reg 1 P s $end
$var reg 1 Q cout $end
$var reg 1 R axorb $end
$upscope $end
$upscope $end
$scope module (3) $end
$scope module fa_i $end
$var reg 1 S a $end
$var reg 1 T b $end
$var reg 1 U cin $end
$var reg 1 V s $end
$var reg 1 W cout $end
$var reg 1 X axorb $end
$upscope $end
$upscope $end
$upscope $end
$scope module (0) $end
$upscope $end
$scope module (1) $end
$upscope $end
$scope module (2) $end
$upscope $end
$upscope $end
$enddefinitions $end
#0
b1101 !
b1000 "
b0000 #
b1000 $
0%
1&
1'
0(
b1101 )
b1000 *
b1000 +
b0000 ,
0-
1.
1/
b1000 0
b1101 1
b1000 2
b0101 3
b0010 4
b0101 5
b0000 6
b1000 7
b0000 8
09
1:
b1101 ;
b1000 <
0=
b0101 >
1?
b10000 @
1A
0B
0C
1D
0E
1F
0G
0H
0I
0J
0K
0L
1M
0N
0O
1P
0Q
1R
1S
1T
0U
0V
1W
0X
#10000000
b0001 #
b1101 $
b1101 +
b0001 ,
b1101 7
#20000000
b0010 #
b0101 $
b0101 +
b0010 ,
b0101 7
#30000000
b0110 #
b0101 $
0&
1'
b0101 +
b0110 ,
0.
1/
b0101 0
b1111 1
b0111 2
b0101 3
b0000 4
b0000 5
b0001 6
b0101 7
19
1:
b0111 <
1=
b0101 >
1?
b11111 @
1B
1C
1E
0F
1H
1I
1K
1L
1N
1O
1P
1Q
0R
0T
1U
1W
1X
#40000000
b0111 #
b0101 $
0%
1&
b0101 +
b0111 ,
0-
1.
b1000 0
b1101 1
b1000 2
b0101 3
b0010 4
b0101 5
b0000 6
b0101 7
09
b1000 <
0=
b0101 >
b10000 @
0B
0C
0E
1F
0H
0I
0K
0L
0N
0O
1P
0Q
1R
1T
0U
0V
0X
#50000000
b1100 #
b0010 $
b0010 +
b1100 ,
b0010 7
#60000000
b0001 !
b1010 "
b0000 #
b0000 $
1%
0&
0'
b0001 )
b1010 *
b0000 +
b0000 ,
1-
0.
0/
b0000 0
b1011 1
b1010 2
b1011 3
b0100 4
b0001 5
b0000 7
0:
b0001 ;
b1010 <
b1011 >
0?
b00000 @
1H
1J
1L
0M
0P
0R
0S
1V
0W
1X
#70000000
b0001 #
b1011 $
0%
b1011 +
b0001 ,
0-
b1011 7
#80000000
b0010 #
b0010 ,
#90000000
b0110 #
b0111 $
0&
b0111 +
b0110 ,
0.
b0001 0
b0101 1
b0101 2
b0111 3
b1010 4
b0000 5
b0001 6
b0111 7
19
b0101 <
1=
b0111 >
b00011 @
1B
1C
1E
0F
0H
1I
0L
1N
1P
1R
0T
0V
0X
#100000000
b0111 #
b0001 $
0%
b0001 +
b0111 ,
0-
b0000 0
b1011 1
b1010 2
b1011 3
b0100 4
b0001 5
b0000 6
b0001 7
09
b1010 <
0=
b1011 >
b00000 @
0B
0C
0E
1F
1H
0I
1L
0N
0P
0R
1T
1V
1X
#110000000
b1100 #
b0100 $
b0100 +
b1100 ,
b0100 7
#120000000
b0110 "
b0000 #
b0000 $
1%
0&
b0110 *
b0000 +
b0000 ,
1-
0.
b0111 1
b0110 2
b0111 3
b1000 4
b0000 7
b0110 <
b0111 >
1N
1P
1R
0T
0V
0X
#130000000
b0001 #
b0111 $
0%
b0111 +
b0001 ,
0-
b0111 7
#140000000
b0010 #
b0010 ,
#150000000
b0110 #
b1011 $
b1011 +
b0110 ,
b0001 0
b1001 1
b1001 2
b1011 3
b0110 4
b0000 5
b0001 6
b1011 7
19
b1001 <
1=
b1011 >
b00011 @
1B
1C
1E
0F
0H
1I
0L
0N
0P
0R
1T
1V
1X
#160000000
b0111 #
b0001 $
0%
0&
b0001 +
b0111 ,
0-
0.
b0000 0
b0111 1
b0110 2
b0111 3
b1000 4
b0001 5
b0000 6
b0001 7
09
b0110 <
0=
b0111 >
b00000 @
0B
0C
0E
1F
1H
0I
1L
1N
1P
1R
0T
0V
0X
#170000000
b1100 #
b1000 $
b1000 +
b1100 ,
b1000 7
